^C:\Users\Martijn\Google Drive\School\Master\2e Master\3DMOD\project\3dmod-project\3DMod.vcxproj
C:\Users\Martijn\Google Drive\School\Master\2e Master\3DMOD\project\3dmod-project\x64\Release\3DMod.ipdb
C:\Users\Martijn\Google Drive\School\Master\2e Master\3DMOD\project\3dmod-project\x64\Release\3DMod.iobj
^C:\Users\Martijn\Google Drive\School\Master\2e Master\3DMOD\project\3dmod-project\3DMod.vcxproj
C:\Users\Martijn\Google Drive\School\Master\2e Master\3DMOD\project\3dmod-project\x64\Release\3DMod.ipdb
C:\Users\Martijn\Google Drive\School\Master\2e Master\3DMOD\project\3dmod-project\x64\Release\3DMod.iobj
^C:\Users\Martijn\Google Drive\School\Master\2e Master\3DMOD\project\3dmod-project\3DMod.vcxproj
C:\Users\Martijn\Google Drive\School\Master\2e Master\3DMOD\project\3dmod-project\x64\Release\3DMod.ipdb
C:\Users\Martijn\Google Drive\School\Master\2e Master\3DMOD\project\3dmod-project\x64\Release\3DMod.iobj
^C:\Users\Martijn\Google Drive\School\Master\2e Master\3DMOD\project\3dmod-project\3DMod.vcxproj
C:\Users\Martijn\Google Drive\School\Master\2e Master\3DMOD\project\3dmod-project\x64\Release\3DMod.ipdb
C:\Users\Martijn\Google Drive\School\Master\2e Master\3DMOD\project\3dmod-project\x64\Release\3DMod.iobj
^C:\Users\Martijn\Google Drive\School\Master\2e Master\3DMOD\project\3dmod-project\3DMod.vcxproj
C:\Users\Martijn\Google Drive\School\Master\2e Master\3DMOD\project\3dmod-project\x64\Release\3DMod.ipdb
C:\Users\Martijn\Google Drive\School\Master\2e Master\3DMOD\project\3dmod-project\x64\Release\3DMod.iobj
^C:\Users\Martijn\Google Drive\School\Master\2e Master\3DMOD\project\3dmod-project\3DMod.vcxproj
C:\Users\Martijn\Google Drive\School\Master\2e Master\3DMOD\project\3dmod-project\x64\Release\3DMod.ipdb
C:\Users\Martijn\Google Drive\School\Master\2e Master\3DMOD\project\3dmod-project\x64\Release\3DMod.iobj
^C:\Users\Martijn\Google Drive\School\Master\2e Master\3DMOD\project\3dmod-project\3DMod.vcxproj
C:\Users\Martijn\Google Drive\School\Master\2e Master\3DMOD\project\3dmod-project\x64\Release\3DMod.ipdb
C:\Users\Martijn\Google Drive\School\Master\2e Master\3DMOD\project\3dmod-project\x64\Release\3DMod.iobj
^C:\Users\Martijn\Google Drive\School\Master\2e Master\3DMOD\project\3dmod-project\3DMod.vcxproj
C:\Users\Martijn\Google Drive\School\Master\2e Master\3DMOD\project\3dmod-project\x64\Release\3DMod.ipdb
C:\Users\Martijn\Google Drive\School\Master\2e Master\3DMOD\project\3dmod-project\x64\Release\3DMod.iobj
^C:\Users\Martijn\Google Drive\School\Master\2e Master\3DMOD\project\3dmod-project\3DMod.vcxproj
C:\Users\Martijn\Google Drive\School\Master\2e Master\3DMOD\project\3dmod-project\x64\Release\3DMod.ipdb
C:\Users\Martijn\Google Drive\School\Master\2e Master\3DMOD\project\3dmod-project\x64\Release\3DMod.iobj
^C:\Users\Martijn\Google Drive\School\Master\2e Master\3DMOD\project\3dmod-project\3DMod.vcxproj
C:\Users\Martijn\Google Drive\School\Master\2e Master\3DMOD\project\3dmod-project\x64\Release\3DMod.ipdb
C:\Users\Martijn\Google Drive\School\Master\2e Master\3DMOD\project\3dmod-project\x64\Release\3DMod.iobj
^C:\Users\Martijn\Google Drive\School\Master\2e Master\3DMOD\project\3dmod-project\3DMod.vcxproj
C:\Users\Martijn\Google Drive\School\Master\2e Master\3DMOD\project\3dmod-project\x64\Release\3DMod.ipdb
C:\Users\Martijn\Google Drive\School\Master\2e Master\3DMOD\project\3dmod-project\x64\Release\3DMod.iobj
^C:\Users\Martijn\Google Drive\School\Master\2e Master\3DMOD\project\3dmod-project\3DMod.vcxproj
C:\Users\Martijn\Google Drive\School\Master\2e Master\3DMOD\project\3dmod-project\x64\Release\3DMod.ipdb
C:\Users\Martijn\Google Drive\School\Master\2e Master\3DMOD\project\3dmod-project\x64\Release\3DMod.iobj
^C:\Users\Martijn\Google Drive\School\Master\2e Master\3DMOD\project\3dmod-project\3DMod.vcxproj
C:\Users\Martijn\Google Drive\School\Master\2e Master\3DMOD\project\3dmod-project\x64\Release\3DMod.ipdb
C:\Users\Martijn\Google Drive\School\Master\2e Master\3DMOD\project\3dmod-project\x64\Release\3DMod.iobj
^C:\Users\Martijn\Google Drive\School\Master\2e Master\3DMOD\project\3dmod-project\3DMod.vcxproj
C:\Users\Martijn\Google Drive\School\Master\2e Master\3DMOD\project\3dmod-project\x64\Release\3DMod.ipdb
C:\Users\Martijn\Google Drive\School\Master\2e Master\3DMOD\project\3dmod-project\x64\Release\3DMod.iobj
^C:\Users\Martijn\Google Drive\School\Master\2e Master\3DMOD\project\3dmod-project\3DMod.vcxproj
C:\Users\Martijn\Google Drive\School\Master\2e Master\3DMOD\project\3dmod-project\x64\Release\3DMod.ipdb
C:\Users\Martijn\Google Drive\School\Master\2e Master\3DMOD\project\3dmod-project\x64\Release\3DMod.iobj
^C:\Users\Martijn\Google Drive\School\Master\2e Master\3DMOD\project\3dmod-project\3DMod.vcxproj
C:\Users\Martijn\Google Drive\School\Master\2e Master\3DMOD\project\3dmod-project\x64\Release\3DMod.ipdb
C:\Users\Martijn\Google Drive\School\Master\2e Master\3DMOD\project\3dmod-project\x64\Release\3DMod.iobj
^C:\Users\Martijn\Google Drive\School\Master\2e Master\3DMOD\project\3dmod-project\3DMod.vcxproj
C:\Users\Martijn\Google Drive\School\Master\2e Master\3DMOD\project\3dmod-project\x64\Release\3DMod.ipdb
C:\Users\Martijn\Google Drive\School\Master\2e Master\3DMOD\project\3dmod-project\x64\Release\3DMod.iobj
^C:\Users\Martijn\Google Drive\School\Master\2e Master\3DMOD\project\3dmod-project\3DMod.vcxproj
C:\Users\Martijn\Google Drive\School\Master\2e Master\3DMOD\project\3dmod-project\x64\Release\3DMod.ipdb
C:\Users\Martijn\Google Drive\School\Master\2e Master\3DMOD\project\3dmod-project\x64\Release\3DMod.iobj
^C:\Users\Martijn\Google Drive\School\Master\2e Master\3DMOD\project\3dmod-project\3DMod.vcxproj
C:\Users\Martijn\Google Drive\School\Master\2e Master\3DMOD\project\3dmod-project\x64\Release\3DMod.ipdb
C:\Users\Martijn\Google Drive\School\Master\2e Master\3DMOD\project\3dmod-project\x64\Release\3DMod.iobj
^C:\Users\Martijn\Google Drive\School\Master\2e Master\3DMOD\project\3dmod-project\3DMod.vcxproj
C:\Users\Martijn\Google Drive\School\Master\2e Master\3DMOD\project\3dmod-project\x64\Release\3DMod.ipdb
C:\Users\Martijn\Google Drive\School\Master\2e Master\3DMOD\project\3dmod-project\x64\Release\3DMod.iobj
