^C:\USERS\MARTIJN\DROPBOX\SCHOOL\MASTER\2E MASTER\3DMOD\PROJECT\3DMOD-PROJECT\CODECGRAYCODE.CPP
/c /I"C:\USERS\MARTIJN\DROPBOX\SCHOOL\MASTER\2E MASTER\3DMOD\PROJECT\3DMOD-PROJECT\THIRDPARTY" /IC:\OPENCV\OPENCV\BUILD\INSTALL\INCLUDE /ZI /nologo /W3 /WX- /diagnostics:classic /sdl /Od /Oy- /D _MBCS /Gm /EHsc /RTC1 /MDd /GS /fp:precise /Zc:wchar_t /Zc:forScope /Zc:inline /Fo"DEBUG\\" /Fd"DEBUG\VC141.PDB" /Gd /TP /analyze- C:\USERS\MARTIJN\DROPBOX\SCHOOL\MASTER\2E MASTER\3DMOD\PROJECT\3DMOD-PROJECT\CODECGRAYCODE.CPP
^C:\USERS\MARTIJN\DROPBOX\SCHOOL\MASTER\2E MASTER\3DMOD\PROJECT\3DMOD-PROJECT\CODECPHASESHIFT2X3.CPP
/c /I"C:\USERS\MARTIJN\DROPBOX\SCHOOL\MASTER\2E MASTER\3DMOD\PROJECT\3DMOD-PROJECT\THIRDPARTY" /IC:\OPENCV\OPENCV\BUILD\INSTALL\INCLUDE /ZI /nologo /W3 /WX- /diagnostics:classic /sdl /Od /Oy- /D _MBCS /Gm /EHsc /RTC1 /MDd /GS /fp:precise /Zc:wchar_t /Zc:forScope /Zc:inline /Fo"DEBUG\\" /Fd"DEBUG\VC141.PDB" /Gd /TP /analyze- C:\USERS\MARTIJN\DROPBOX\SCHOOL\MASTER\2E MASTER\3DMOD\PROJECT\3DMOD-PROJECT\CODECPHASESHIFT2X3.CPP
^C:\USERS\MARTIJN\DROPBOX\SCHOOL\MASTER\2E MASTER\3DMOD\PROJECT\3DMOD-PROJECT\MAIN.CPP
/c /I"C:\USERS\MARTIJN\DROPBOX\SCHOOL\MASTER\2E MASTER\3DMOD\PROJECT\3DMOD-PROJECT\THIRDPARTY" /IC:\OPENCV\OPENCV\BUILD\INSTALL\INCLUDE /ZI /nologo /W3 /WX- /diagnostics:classic /sdl /Od /Oy- /D _MBCS /Gm /EHsc /RTC1 /MDd /GS /fp:precise /Zc:wchar_t /Zc:forScope /Zc:inline /Fo"DEBUG\\" /Fd"DEBUG\VC141.PDB" /Gd /TP /analyze- C:\USERS\MARTIJN\DROPBOX\SCHOOL\MASTER\2E MASTER\3DMOD\PROJECT\3DMOD-PROJECT\MAIN.CPP
^C:\USERS\MARTIJN\DROPBOX\SCHOOL\MASTER\2E MASTER\3DMOD\PROJECT\3DMOD-PROJECT\UTIL.CPP
/c /I"C:\USERS\MARTIJN\DROPBOX\SCHOOL\MASTER\2E MASTER\3DMOD\PROJECT\3DMOD-PROJECT\THIRDPARTY" /IC:\OPENCV\OPENCV\BUILD\INSTALL\INCLUDE /ZI /nologo /W3 /WX- /diagnostics:classic /sdl /Od /Oy- /D _MBCS /Gm /EHsc /RTC1 /MDd /GS /fp:precise /Zc:wchar_t /Zc:forScope /Zc:inline /Fo"DEBUG\\" /Fd"DEBUG\VC141.PDB" /Gd /TP /analyze- C:\USERS\MARTIJN\DROPBOX\SCHOOL\MASTER\2E MASTER\3DMOD\PROJECT\3DMOD-PROJECT\UTIL.CPP
